[
  {
    "id": 1,
    "properties": {
      "release": {
        "month": "mar",
        "year": "2019"
      },
      "manufacturer": "Bitmain",
      "model": "s9i",
      "hash": {
        "min": "10.5",
        "max": "14.5",
        "unit": "th/s"
      },
      "algorithm": "SHA-256",
      "efficiency": {
        "value": "8",
        "unit": "j/H/s"
      },
      "profit": {
        "value": "122.88",
        "currencyIcon": "$",
        "interval": "day"
      },
      "price": {
        "min": "137",
        "max": "217",
        "currencyIcon": "$"
      }
    },
    "sources": {
      "firstIconURL": "img/star.svg",
      "secondIconURL": "img/green_arrow.svg",
      "productImgURL": ""
    }
  },
  {
    "id": 2,
    "properties": {
      "release": {
        "month": "mar",
        "year": "2019"
      },
      "manufacturer": "Bitmain",
      "model": "s9i",
      "hash": {
        "min": "10.5",
        "max": "14.5",
        "unit": "th/s"
      },
      "algorithm": "SHA-256",
      "efficiency": {
        "value": "8",
        "unit": "j/H/s"
      },
      "profit": {
        "value": "0.04",
        "currencyIcon": "$",
        "interval": "day"
      },
      "price": {
        "min": "137",
        "max": "217",
        "currencyIcon": "$"
      }
    },
    "sources": {
      "firstIconURL": "",
      "secondIconURL": "",
      "productImgURL": ""
    }
  },
  {
    "id": 3,
    "properties": {
      "release": {
        "month": "mar",
        "year": "2019"
      },
      "manufacturer": "Bitmain",
      "model": "s9i",
      "hash": {
        "min": "10.5",
        "max": "14.5",
        "unit": "th/s"
      },
      "algorithm": "SHA-256",
      "efficiency": {
        "value": "8",
        "unit": "j/H/s"
      },
      "profit": {
        "value": "0.04",
        "currencyIcon": "$",
        "interval": "day"
      },
      "price": {
        "min": "137",
        "max": "217",
        "currencyIcon": "$"
      }
    },
    "sources": {
      "firstIconURL": "",
      "secondIconURL": "",
      "productImgURL": ""
    }
  },
  {
    "id": 4,
    "properties": {
      "release": {
        "month": "mar",
        "year": "2019"
      },
      "manufacturer": "Bitmain",
      "model": "s9i",
      "hash": {
        "min": "10.5",
        "max": "14.5",
        "unit": "th/s"
      },
      "algorithm": "SHA-256",
      "efficiency": {
        "value": "8",
        "unit": "j/H/s"
      },
      "profit": {
        "value": "122.8",
        "currencyIcon": "$",
        "interval": "day"
      },
      "price": {
        "min": "137",
        "max": "217",
        "currencyIcon": "$"
      }
    },
    "sources": {
      "firstIconURL": "",
      "secondIconURL": "",
      "productImgURL": ""
    }
  },
  {
    "id": 5,
    "properties": {
      "release": {
        "month": "mar",
        "year": "2019"
      },
      "manufacturer": "Bitmain",
      "model": "s9i",
      "hash": {
        "min": "10.5",
        "max": "14.5",
        "unit": "th/s"
      },
      "algorithm": "SHA-256",
      "efficiency": {
        "value": "8",
        "unit": "j/H/s"
      },
      "profit": {
        "value": "0.04",
        "currencyIcon": "$",
        "interval": "day"
      },
      "price": {
        "min": "137",
        "max": "217",
        "currencyIcon": "$"
      }
    },
    "sources": {
      "firstIconURL": "",
      "secondIconURL": "",
      "productImgURL": ""
    }
  },
  {
    "id": 6,
    "properties": {
      "release": {
        "month": "mar",
        "year": "2019"
      },
      "manufacturer": "Bitmain",
      "model": "s9i",
      "hash": {
        "min": "10.5",
        "max": "14.5",
        "unit": "th/s"
      },
      "algorithm": "SHA-256",
      "efficiency": {
        "value": "8",
        "unit": "j/H/s"
      },
      "profit": {
        "value": "0.04",
        "currencyIcon": "$",
        "interval": "day"
      },
      "price": {
        "min": "137",
        "max": "217",
        "currencyIcon": "$"
      }
    },
    "sources": {
      "firstIconURL": "",
      "secondIconURL": "",
      "productImgURL": ""
    }
  },
  {
    "id": 7,
    "properties": {
      "release": {
        "month": "mar",
        "year": "2019"
      },
      "manufacturer": "Bitmain",
      "model": "s9i",
      "hash": {
        "min": "10.5",
        "max": "14.5",
        "unit": "th/s"
      },
      "algorithm": "SHA-256",
      "efficiency": {
        "value": "8",
        "unit": "j/H/s"
      },
      "profit": {
        "value": "122.88",
        "currencyIcon": "$",
        "interval": "day"
      },
      "price": {
        "min": "137",
        "max": "217",
        "currencyIcon": "$"
      }
    },
    "sources": {
      "firstIconURL": "",
      "secondIconURL": "",
      "productImgURL": ""
    }
  },
  {
    "id": 8,
    "properties": {
      "release": {
        "month": "mar",
        "year": "2019"
      },
      "manufacturer": "Bitmain",
      "model": "s9i",
      "hash": {
        "min": "10.5",
        "max": "14.5",
        "unit": "th/s"
      },
      "algorithm": "SHA-256",
      "efficiency": {
        "value": "8",
        "unit": "j/H/s"
      },
      "profit": {
        "value": "0.04",
        "currencyIcon": "$",
        "interval": "day"
      },
      "price": {
        "min": "137",
        "max": "217",
        "currencyIcon": "$"
      }
    },
    "sources": {
      "firstIconURL": "",
      "secondIconURL": "",
      "productImgURL": ""
    }
  },
  {
    "id": 9,
    "properties": {
      "release": {
        "month": "mar",
        "year": "2019"
      },
      "manufacturer": "Bitmain",
      "model": "s9i",
      "hash": {
        "min": "10.5",
        "max": "14.5",
        "unit": "th/s"
      },
      "algorithm": "SHA-256",
      "efficiency": {
        "value": "8",
        "unit": "j/H/s"
      },
      "profit": {
        "value": "0.04",
        "currencyIcon": "$",
        "interval": "day"
      },
      "price": {
        "min": "137",
        "max": "217",
        "currencyIcon": "$"
      }
    },
    "sources": {
      "firstIconURL": "",
      "secondIconURL": "",
      "productImgURL": ""
    }
  },
  {
    "id": 10,
    "properties": {
      "release": {
        "month": "mar",
        "year": "2019"
      },
      "manufacturer": "Bitmain",
      "model": "s9i",
      "hash": {
        "min": "10.5",
        "max": "14.5",
        "unit": "th/s"
      },
      "algorithm": "SHA-256",
      "efficiency": {
        "value": "8",
        "unit": "j/H/s"
      },
      "profit": {
        "value": "122.88",
        "currencyIcon": "$",
        "interval": "day"
      },
      "price": {
        "min": "137",
        "max": "217",
        "currencyIcon": "$"
      }
    },
    "sources": {
      "firstIconURL": "",
      "secondIconURL": "",
      "productImgURL": ""
    }
  },
  {
    "id": 11,
    "properties": {
      "release": {
        "month": "mar",
        "year": "2019"
      },
      "manufacturer": "Bitmain",
      "model": "s9i",
      "hash": {
        "min": "10.5",
        "max": "14.5",
        "unit": "th/s"
      },
      "algorithm": "SHA-256",
      "efficiency": {
        "value": "8",
        "unit": "j/H/s"
      },
      "profit": {
        "value": "0.04",
        "currencyIcon": "$",
        "interval": "day"
      },
      "price": {
        "min": "137",
        "max": "217",
        "currencyIcon": "$"
      }
    },
    "sources": {
      "firstIconURL": "",
      "secondIconURL": "",
      "productImgURL": ""
    }
  }
]